5 GCM Data Summary – YCT Productivity - Redd Counts
…
Autumn: 2045-2050

Winter: 2083

Spring: 2065

Summer: 2050-2055

Code

maxobs <- airsum %>% filter(site == "moose", broodyr %in% c(1980:2015)) %>% group_by(site) %>% summarise(maxfal = max(temp_falmean, na.rm = T), maxwin = max(temp_winmean, na.rm = T), maxspr = max(temp_sprmean, na.rm = T), maxsum = max(temp_summean, na.rm = T))

dat_summ %>% filter(type == "corrected", season == "fal", temp_avg >= c(maxobs[1,2])) # 2045-2050

# A tibble: 56 × 8
   type      season  year count temp_avg temp_sd temp_min temp_max
   <chr>     <chr>  <dbl> <dbl>    <dbl>   <dbl>    <dbl>    <dbl>
 1 corrected fal     2036    15     6.18   0.994     4.82     7.75
 2 corrected fal     2042    15     6.21   1.11      4.34     7.88
 3 corrected fal     2043    15     6.62   1.23      4.51     8.71
 4 corrected fal     2046    15     6.29   1.62      3.64    10.1 
 5 corrected fal     2047    15     6.63   1.24      5.16    10.0 
 6 corrected fal     2049    15     6.71   1.54      3.29     9.42
 7 corrected fal     2050    15     6.34   1.31      4.42     9.01
 8 corrected fal     2051    15     6.25   1.85      2.83     9.07
 9 corrected fal     2052    15     6.50   1.81      1.99    10.1 
10 corrected fal     2053    15     6.88   1.32      4.98    10.2 
# ℹ 46 more rows
…
Code

dat_summ %>% filter(type == "corrected", season == "spr", temp_avg >= c(maxobs[1,4])) # 2065

# A tibble: 37 × 8
   type      season  year count temp_avg temp_sd temp_min temp_max
   <chr>     <chr>  <dbl> <dbl>    <dbl>   <dbl>    <dbl>    <dbl>
 1 corrected spr     2060    15     5.45    2.16     1.08     9.80
 2 corrected spr     2061    15     5.55    1.28     1.89     7.24
 3 corrected spr     2065    15     5.54    1.47     3.15     8.73
 4 corrected spr     2066    15     5.76    2.03     1.27     8.69
 5 corrected spr     2067    15     5.66    1.67     2.06     8.41
 6 corrected spr     2068    15     5.47    1.46     3.52     8.27
 7 corrected spr     2069    15     5.52    1.90     2.03     8.60
 8 corrected spr     2070    15     5.76    1.93     1.93     9.33
 9 corrected spr     2071    15     6.12    1.84     2.84     8.98
10 corrected spr     2072    15     6.40    2.12     2.76    11.3 
# ℹ 27 more rows

Code

dat_summ %>% filter(type == "corrected", season == "sum", temp_avg >= c(maxobs[1,5])) # 2050-2055

# A tibble: 48 × 8
   type      season  year count temp_avg temp_sd temp_min temp_max
   <chr>     <chr>  <dbl> <dbl>    <dbl>   <dbl>    <dbl>    <dbl>
 1 corrected sum     2050    15     17.4   0.891     16.1     19.4
 2 corrected sum     2051    15     17.5   1.48      15.3     20.5
 3 corrected sum     2053    15     17.6   0.926     16.0     19.3
 4 corrected sum     2055    15     17.6   1.37      15.7     20.7
 5 corrected sum     2056    15     17.7   1.17      15.5     19.7
 6 corrected sum     2057    15     17.6   1.06      15.7     19.3
 7 corrected sum     2058    15     17.5   1.27      16.4     20.4
 8 corrected sum     2059    15     18.0   1.23      15.1     20.3
 9 corrected sum     2060    15     17.8   1.33      16.0     20.4
10 corrected sum     2061    15     18.1   1.13      16.2     20.3
# ℹ 38 more rows
…
