2 Environmental Covariates – YCT Productivity - Redd Counts
…
dlist2 <- list()
yrs <- unique(airtemp$broodyr)
sites <- unique(airtemp$site)
for (j in 1:length(sites)) {
  for (i in 1:length(yrs)) {
    d <- filter(airtemp, broodyr == yrs[i] & site == sites[j])
    d$bydoy <- c(1:dim(d)[1])
    dlist1[[i]] <- d
  }
  dlist2[[j]] <- dlist1
}
airtemp2 <- bind_rows(dlist2) %>% filter(!is.na(tmean)) # bind and drop rows with NA
airtemp2

# A tibble: 42,519 × 12
   station     site  date        tmin  tmax tmean tmean_int  year month  yday
   <chr>       <chr> <date>     <dbl> <dbl> <dbl>     <dbl> <dbl> <dbl> <dbl>
 1 USC00486428 moose 1960-09-01   6.1  21.7  13.9      13.9  1960     9   245
 2 USC00486428 moose 1960-09-02   7.8  25.6  16.7      16.7  1960     9   246
 3 USC00486428 moose 1960-09-03   7.8  27.8  17.8      17.8  1960     9   247
 4 USC00486428 moose 1960-09-04  10    25.6  17.8      17.8  1960     9   248
 5 USC00486428 moose 1960-09-05   5    25.6  15.3      15.3  1960     9   249
 6 USC00486428 moose 1960-09-06   4.4  25    14.7      14.7  1960     9   250
 7 USC00486428 moose 1960-09-07   3.3  22.8  13.0      13.0  1960     9   251
 8 USC00486428 moose 1960-09-08   2.2  21.7  12.0      12.0  1960     9   252
 9 USC00486428 moose 1960-09-09   1.1  23.9  12.5      12.5  1960     9   253
10 USC00486428 moose 1960-09-10   0    22.2  11.1      11.1  1960     9   254
# ℹ 42,509 more rows
# ℹ 2 more variables: broodyr <dbl>, bydoy <int>
…
